<svg width="120" height="120" viewBox="0 0 120 120" fill="none" xmlns="http://www.w3.org/2000/svg">
<path d="M12.2645 19.5236C18.3606 13.4274 26.6287 10.0027 35.25 10.0027C43.8712 10.0027 52.1394 13.4274 58.2355 19.5236L60 21.2881L61.7645 19.5236C67.8606 13.4274 76.1288 10.0027 84.75 10.0027C93.3713 10.0027 101.639 13.4274 107.736 19.5236C113.832 25.6197 117.256 33.8879 117.256 42.5091C117.256 51.1304 113.832 59.3985 107.736 65.4947L63.5355 109.695C61.827 111.403 59.1896 111.617 57.2488 110.335C56.9716 110.152 56.7085 109.939 56.4645 109.695L12.2645 65.4947C6.16831 59.3985 2.74353 51.1304 2.74353 42.5091C2.74353 33.8879 6.16831 25.6197 12.2645 19.5236Z" fill="#EE1D52"/>
</svg>
