<svg width="120" height="124" viewBox="0 0 120 124" fill="none" xmlns="http://www.w3.org/2000/svg">
<path d="M6.15367 112.885L4.15872 116.632L2.16376 112.885H0V123.813H2.40929V117.194L3.92853 120.082H4.3889L5.90814 117.194V123.813H8.31743V112.885H6.15367Z" fill="#3A3A3A"/>
<path d="M15.7626 112.37H13.1845V114.727H15.7626V112.37ZM15.5631 121.924V115.882H10.8979V117.771H13.3686V121.924H10.3915V123.813H18.5248V121.924H15.5631Z" fill="#3A3A3A"/>
<path d="M25.3561 115.695C24.2052 115.695 23.3458 116.132 22.8394 117.069V115.882H20.6449V123.813H22.8394V119.801C22.8394 118.411 23.576 117.693 24.6195 117.693C25.4482 117.693 26.0313 118.302 26.0313 119.41V123.813H28.2258V118.88C28.2258 116.96 27.1976 115.695 25.3561 115.695Z" fill="#3A3A3A"/>
<path d="M38.9549 117.771V115.882H34.4739V113.432H32.2795V114.118C32.2795 115.414 31.9879 115.882 30.8216 115.882H29.9162V117.771H32.2795V120.878C32.2795 122.673 33.7833 124 36.1006 124C36.7758 124 37.2822 123.938 38.5559 123.454V121.409C37.2822 122.049 36.8065 122.127 36.3001 122.127C35.1184 122.127 34.4739 121.643 34.4739 120.737V117.771H38.9549Z" fill="#3A3A3A"/>
<path d="M58.0038 121.658C58.6177 120.722 58.986 119.551 58.986 118.162H56.8989C56.8989 118.88 56.8069 119.504 56.6227 120.05L55.0268 118.193C56.592 117.334 57.3747 116.507 57.3747 115.289C57.3747 113.728 56.1317 112.682 54.2595 112.682C52.3259 112.682 51.1136 113.775 51.1136 115.32C51.1136 116.132 51.4819 116.944 52.2031 117.912C51.0368 118.661 50.2235 119.504 50.2235 120.847C50.2235 122.736 51.7427 123.984 53.7991 123.984C54.7966 123.984 55.794 123.672 56.6227 123.079L57.2519 123.813H59.876L58.0038 121.658ZM54.3515 114.384C55.0268 114.384 55.4104 114.821 55.4104 115.43C55.4104 116.148 54.8886 116.476 53.9525 116.944C53.5536 116.476 53.2466 116.023 53.2466 115.461C53.2466 114.836 53.661 114.384 54.3515 114.384ZM54.152 122.033C53.1699 122.033 52.2952 121.565 52.2952 120.566C52.2952 119.91 52.7095 119.488 53.2466 119.145L55.4257 121.69C55.0574 121.908 54.6278 122.033 54.152 122.033Z" fill="#3A3A3A"/>
<path d="M75.5489 112.885H71.1447V123.813H73.554V119.723H75.5489C77.8354 119.723 79.4928 118.38 79.4928 116.257C79.4928 114.228 77.8354 112.885 75.5489 112.885ZM75.4875 117.693H73.554V114.93H75.4875C76.5157 114.93 77.1295 115.492 77.1295 116.257C77.1295 117.084 76.5157 117.693 75.4875 117.693Z" fill="#3A3A3A"/>
<path d="M89.3472 117.99V115.711C87.1527 115.711 86.0018 116.273 85.4187 117.381V115.882H81.4594V117.771H83.2242V121.924H81.4594V123.813H88.4418V121.924H85.4187V121.034C85.4187 118.817 85.4801 117.724 89.3472 117.99Z" fill="#3A3A3A"/>
<path d="M96.8077 112.37H94.2296V114.727H96.8077V112.37ZM96.6082 121.924V115.882H91.943V117.771H94.4137V121.924H91.4366V123.813H99.5699V121.924H96.6082Z" fill="#3A3A3A"/>
<path d="M106.401 115.695C105.25 115.695 104.391 116.132 103.884 117.069V115.882H101.69V123.813H103.884V119.801C103.884 118.411 104.621 117.693 105.665 117.693C106.493 117.693 107.076 118.302 107.076 119.41V123.813H109.271V118.88C109.271 116.96 108.243 115.695 106.401 115.695Z" fill="#3A3A3A"/>
<path d="M120 117.771V115.882H115.519V113.432H113.325V114.118C113.325 115.414 113.033 115.882 111.867 115.882H110.961V117.771H113.325V120.878C113.325 122.673 114.828 124 117.146 124C117.821 124 118.327 123.938 119.601 123.454V121.409C118.327 122.049 117.852 122.127 117.345 122.127C116.164 122.127 115.519 121.643 115.519 120.737V117.771H120Z" fill="#3A3A3A"/>
<path d="M50.0185 66.4391L42.2209 99.2257H77.9981L70.6592 66.4391H50.0185Z" fill="#EE1D52"/>
<path d="M70.6592 48.5994V17.1851V4H50.0185V24.1439V48.5994H70.6592Z" fill="#EE1D52"/>
<path d="M70.6592 17.1851V48.5994H82.1676V17.1851H70.6592Z" fill="#30D6B0"/>
<path d="M70.6592 66.4391L77.9981 99.2257H94.9694L82.1676 66.4391H70.6592Z" fill="#30D6B0"/>
<path d="M36.8597 48.5994H50.0185V24.1439H36.8597V48.5994Z" fill="#69C9D0"/>
<path d="M23.8736 99.2257H42.2209L50.0185 66.4391H36.8597L23.8736 99.2257Z" fill="#69C9D0"/>
<path fill-rule="evenodd" clip-rule="evenodd" d="M26.1249 91.9934H12.4982V40.9176H25.2685V31.7239H33.1271V40.9176H86.1727V31.7239H93.5401V40.9176H107.293V91.9934H93.5401L85.1991 70.7361H34.5578L26.1249 91.9934Z" fill="#3A3A3A"/>
<path d="M23.8736 99.2257L20.1547 97.7527L17.9869 103.226H23.8736V99.2257ZM36.8597 66.4391V62.4391H34.1417L33.1408 64.9661L36.8597 66.4391ZM82.1676 66.4391L85.8936 64.9843L84.8998 62.4391H82.1676V66.4391ZM94.9694 99.2257V103.226H100.825L98.6954 97.7708L94.9694 99.2257ZM82.1676 17.1851H86.1676V13.1851H82.1676V17.1851ZM82.1676 48.5994V52.5994H86.1676V48.5994H82.1676ZM50.0185 4V0H46.0185V4H50.0185ZM70.6592 4H74.6592V0H70.6592V4ZM36.8597 48.5994H32.8597V52.5994H36.8597V48.5994ZM36.8597 24.1439V20.1439H32.8597V24.1439H36.8597ZM26.1249 91.9934V95.9934H28.8414L29.843 93.4684L26.1249 91.9934ZM12.4982 91.9934H8.49823V95.9934H12.4982V91.9934ZM12.4982 40.9176V36.9176H8.49823V40.9176H12.4982ZM25.2685 40.9176V44.9176H29.2685V40.9176H25.2685ZM25.2685 31.7239V27.7239H21.2685V31.7239H25.2685ZM33.1271 31.7239H37.1271V27.7239H33.1271V31.7239ZM33.1271 40.9176H29.1271V44.9176H33.1271V40.9176ZM86.1727 40.9176V44.9176H90.1727V40.9176H86.1727ZM86.1727 31.7239V27.7239H82.1727V31.7239H86.1727ZM93.5401 31.7239H97.5401V27.7239H93.5401V31.7239ZM93.5401 40.9176H89.5401V44.9176H93.5401V40.9176ZM107.293 40.9176H111.293V36.9176H107.293V40.9176ZM107.293 91.9934V95.9934H111.293V91.9934H107.293ZM93.5401 91.9934L89.8165 93.4545L90.8127 95.9934H93.5401V91.9934ZM85.1991 70.7361L88.9227 69.275L87.9264 66.7361H85.1991V70.7361ZM34.5578 70.7361V66.7361H31.8414L30.8397 69.2611L34.5578 70.7361ZM23.8736 103.226H42.2209V95.2257H23.8736V103.226ZM46.1123 100.151L53.9099 67.3646L46.127 65.5136L38.3294 98.3002L46.1123 100.151ZM50.0185 62.4391H36.8597V70.4391H50.0185V62.4391ZM33.1408 64.9661L20.1547 97.7527L27.5925 100.699L40.5786 67.9121L33.1408 64.9661ZM42.2209 103.226H77.9981V95.2257H42.2209V103.226ZM81.9015 98.352L74.5626 65.5654L66.7558 67.3129L74.0947 100.099L81.9015 98.352ZM70.6592 62.4391H50.0185V70.4391H70.6592V62.4391ZM70.6592 70.4391H82.1676V62.4391H70.6592V70.4391ZM78.4415 67.894L91.2433 100.681L98.6954 97.7708L85.8936 64.9843L78.4415 67.894ZM94.9694 95.2257H77.9981V103.226H94.9694V95.2257ZM74.6592 48.5994V17.1851H66.6592V48.5994H74.6592ZM70.6592 21.1851H82.1676V13.1851H70.6592V21.1851ZM78.1676 17.1851V48.5994H86.1676V17.1851H78.1676ZM82.1676 44.5994H70.6592V52.5994H82.1676V44.5994ZM70.6592 44.5994H50.0185V52.5994H70.6592V44.5994ZM50.0185 8H70.6592V0H50.0185V8ZM66.6592 4V17.1851H74.6592V4H66.6592ZM50.0185 44.5994H36.8597V52.5994H50.0185V44.5994ZM40.8597 48.5994V24.1439H32.8597V48.5994H40.8597ZM54.0185 48.5994V24.1439H46.0185V48.5994H54.0185ZM54.0185 24.1439V4H46.0185V24.1439H54.0185ZM36.8597 28.1439H50.0185V20.1439H36.8597V28.1439ZM26.1249 87.9934H12.4982V95.9934H26.1249V87.9934ZM16.4982 91.9934V40.9176H8.49823V91.9934H16.4982ZM12.4982 44.9176H25.2685V36.9176H12.4982V44.9176ZM29.2685 40.9176V31.7239H21.2685V40.9176H29.2685ZM25.2685 35.7239H33.1271V27.7239H25.2685V35.7239ZM29.1271 31.7239V40.9176H37.1271V31.7239H29.1271ZM33.1271 44.9176H86.1727V36.9176H33.1271V44.9176ZM90.1727 40.9176V31.7239H82.1727V40.9176H90.1727ZM86.1727 35.7239H93.5401V27.7239H86.1727V35.7239ZM89.5401 31.7239V40.9176H97.5401V31.7239H89.5401ZM93.5401 44.9176H107.293V36.9176H93.5401V44.9176ZM103.293 40.9176V91.9934H111.293V40.9176H103.293ZM107.293 87.9934H93.5401V95.9934H107.293V87.9934ZM97.2637 90.5323L88.9227 69.275L81.4755 72.1971L89.8165 93.4545L97.2637 90.5323ZM85.1991 66.7361H34.5578V74.7361H85.1991V66.7361ZM30.8397 69.2611L22.4068 90.5184L29.843 93.4684L38.276 72.2111L30.8397 69.2611Z" fill="#3A3A3A"/>
</svg>
